OPSO79-1-UCSH2021
…
--

Selecciona 1 columnas de la base `guaguas`:

--

```r
select(guaguas,nombre)
```

```
## # A tibble: 845,400 x 1
##    nombre
##    <chr> 
##  1 Mar칤a 
##  2 Jos칠  
##  3 Juan  
##  4 Luis  
##  5 Rosa  
##  6 Ana   
##  7 Manuel
##  8 Olga  
##  9 Carlos
## 10 Pedro 
## # ... with 845,390 more rows
```

---

# select()

Podemos seleccionar m치s de una columna agregandolas como argumento

--

```r
select(guaguas,nombre,n)
```

```
## # A tibble: 845,400 x 2
##    nombre     n
##    <chr>  <dbl>
##  1 Mar칤a   2130
##  2 Jos칠     984
##  3 Juan     636
##  4 Luis     631
##  5 Rosa     426
##  6 Ana      340
##  7 Manuel   326
##  8 Olga     289
##  9 Carlos   277
## 10 Pedro    269
## # ... with 845,390 more rows
```

---

# select()

E incluso reordenar las columnas, ocupando sus nombres o sus posiciones

--

```r
select(guaguas,5:1)
```

```
## # A tibble: 845,400 x 5
##    proporcion     n sexo  nombre  anio
##         <dbl> <dbl> <chr> <chr>  <dbl>
##  1     0.104   2130 F     Mar칤a   1920
##  2     0.0483   984 M     Jos칠    1920
##  3     0.0312   636 M     Juan    1920
##  4     0.0310   631 M     Luis    1920
##  5     0.0209   426 F     Rosa    1920
##  6     0.0167   340 F     Ana     1920
##  7     0.0160   326 M     Manuel  1920
##  8     0.0142   289 F     Olga    1920
##  9     0.0136   277 M     Carlos  1920
## 10     0.0132   269 M     Pedro   1920
## # ... with 845,390 more rows
```
…
```r
rename(data, nuevonombre = antiguonombre)
```

--

Dado que "n" es poco claro, le llamaremos "frecuencia".

```r
rename(guaguas, frecuencia=n)
```

```
## # A tibble: 845,400 x 5
##     anio nombre sexo  frecuencia proporcion
##    <dbl> <chr>  <chr>      <dbl>      <dbl>
##  1  1920 Mar칤a  F           2130     0.104 
##  2  1920 Jos칠   M            984     0.0483
##  3  1920 Juan   M            636     0.0312
##  4  1920 Luis   M            631     0.0310
##  5  1920 Rosa   F            426     0.0209
##  6  1920 Ana    F            340     0.0167
##  7  1920 Manuel M            326     0.0160
##  8  1920 Olga   F            289     0.0142
##  9  1920 Carlos M            277     0.0136
## 10  1920 Pedro  M            269     0.0132
## # ... with 845,390 more rows
```
…
