OPSO79-1-UCSH2021
…
---

# Funciones elementales

Seleccionar una variable

```r
guaguas[,2]
```

```
## # A tibble: 845,400 x 1
##    nombre
##    <chr> 
##  1 María 
##  2 José  
##  3 Juan  
##  4 Luis  
##  5 Rosa  
##  6 Ana   
##  7 Manuel
##  8 Olga  
##  9 Carlos
## 10 Pedro 
## # ... with 845,390 more rows
```
…
