OPSO79-1-UCSH2021: Guia ejercicios 1
…
guaguas <- guaguas # crea un nuevo objeto llamado "guaguas" que posea la base de datos "guaguas"

dim(guaguas) # Esta base de datos posee 845400 observaciones y 5 variables. Esto es lo mismo que decir 845400 filas y 5 columnas

[1] 845400      5

Ahora veamos los ejercicios de la tarea:

1. Cuntas guaguas se inscribieron en 1920 con tu nombre?

Para realizar este ejercicio, debemos conseguir que R nos muestre 1) solo las filas de 1920 de la variable anio y 2) el valor de nuestro nombre

guaguas[guaguas$nombre=="Kevin",] # Con este cdigo R nos muestra solo los casos que digan "Kevin" en las filas de la columna nombre

# A tibble: 62 x 5
    anio nombre sexo      n proporcion
   <dbl> <chr>  <chr> <dbl>      <dbl>
 1  1931 Kevin  M         1 0.0000120 
 2  1963 Kevin  M         1 0.00000350
 3  1964 Kevin  M         1 0.00000344
 4  1967 Kevin  M         4 0.0000131 
 5  1970 Kevin  M         6 0.0000210 
 6  1971 Kevin  M         3 0.00000936
 7  1972 Kevin  M         3 0.00000945
 8  1973 Kevin  M         2 0.00000633
 9  1974 Kevin  M         5 0.0000163 
10  1976 Kevin  M         2 0.00000724
# ... with 52 more rows

guaguas[guaguas$anio==1920,] # Con este cdigo R nos muestra solo los casos que tengan el valor 1920 en las filas de la columna anio

# A tibble: 2,028 x 5
    anio nombre sexo      n proporcion
   <dbl> <chr>  <chr> <dbl>      <dbl>
 1  1920 Mara  F      2130     0.104 
 2  1920 Jos   M       984     0.0483
 3  1920 Juan   M       636     0.0312
 4  1920 Luis   M       631     0.0310
 5  1920 Rosa   F       426     0.0209
 6  1920 Ana    F       340     0.0167
 7  1920 Manuel M       326     0.0160
 8  1920 Olga   F       289     0.0142
 9  1920 Carlos M       277     0.0136
10  1920 Pedro  M       269     0.0132
# ... with 2,018 more rows
…
En el ao 1996 se inscribieron 1312 personas con el nombre Kevin.

3. Crea una nueva data frame que se llame como t y que solo contenga inscripciones de tu nombre

La idea de crear una nueva data frame tiene por objetivo crear un nuevo objeto en el ambiente de R que posea, por ejemplo, solo algunas variables o solo algunas observaciones que nos sean de inters. Esto nos permite visualizar de mejor forma los datos que nos interesa trabajar y, adems, mantenemos la base de datos original. Para crear una nueva data frame debemos asignar nuestra base de datos completa o los datos que queremos seleccionar/filtrar a un nuevo objeto. Por ejemplo, en el ejercicio sera:

qu necesitamos visualizar? Todas las observaciones que tengan el valor Kevin en la variable nombre

qu hacemos con estos datos? los asignamos a un nuevo objeto que se llame Kevin

guaguas[guaguas$nombre=="Kevin",] # Vemos todas las observaciones que tengan el valor "Kevin" en la variable nombre

# A tibble: 62 x 5
    anio nombre sexo      n proporcion
   <dbl> <chr>  <chr> <dbl>      <dbl>
 1  1931 Kevin  M         1 0.0000120 
 2  1963 Kevin  M         1 0.00000350
 3  1964 Kevin  M         1 0.00000344
 4  1967 Kevin  M         4 0.0000131 
 5  1970 Kevin  M         6 0.0000210 
 6  1971 Kevin  M         3 0.00000936
 7  1972 Kevin  M         3 0.00000945
 8  1973 Kevin  M         2 0.00000633
 9  1974 Kevin  M         5 0.0000163 
10  1976 Kevin  M         2 0.00000724
# ... with 52 more rows
…
