OPSO79-1-UCSH2021
…
# Tarea 3

#### 4. Crea 2 tablas con el promedio de ingresos (cualquier variable de ingresos) según región y sector económico

--

```r
esi %>% 
  group_by( b13_rev4cl_caenes) %>% 
  summarise(mean(ing_mon_sb))
```

```
## # A tibble: 22 x 2
##                                              b13_rev4cl_caenes `mean(ing_mon_sb~
##                                                      <dbl+lbl>             <dbl>
##  1  1 [Agricultura, ganadería, silvicultura y pesca]                     297062.
##  2  2 [Explotación de minas y canteras]                                  836287.
##  3  3 [Industrias manufactureras]                                        677448.
##  4  4 [Suministro de electricidad, gas, vapor y aire acondici~           641023.
##  5  5 [Suministro de agua; evacuación de aguas residuales, ge~           470431.
##  6  6 [Construcción]                                                     600585.
##  7  7 [Comercio al por mayor y al por menor; reparación de ve~           505691.
##  8  8 [Transporte y almacenamiento]                                      569633.
##  9  9 [Actividades de alojamiento y de servicio de comidas]              451014.
## 10 10 [Información y comunicaciones]                                     857778.
## # ... with 12 more rows
```
…
#### 5. Identifica para cada combinación de región y de sector económico el total de casos en el microdato (solo 1 tabla)

```r
esi %>% 
  group_by(region,b13_rev4cl_caenes) %>% 
  summarise(n())
```

```
## `summarise()` has grouped output by 'region'. You can override using the `.groups` argument.
```

```
## # A tibble: 244 x 3
## # Groups:   region [16]
##                    region                                b13_rev4cl_caenes `n()`
##                 <dbl+lbl>                                        <dbl+lbl> <int>
##  1 1 [Región de Tarapacá]  2 [Explotación de minas y canteras]                 5
##  2 1 [Región de Tarapacá]  3 [Industrias manufactureras]                      16
##  3 1 [Región de Tarapacá]  5 [Suministro de agua; evacuación de aguas res~     1
##  4 1 [Región de Tarapacá]  6 [Construcción]                                   19
##  5 1 [Región de Tarapacá]  7 [Comercio al por mayor y al por menor; repar~     3
##  6 1 [Región de Tarapacá]  8 [Transporte y almacenamiento]                    16
##  7 1 [Región de Tarapacá]  9 [Actividades de alojamiento y de servicio de~    20
##  8 1 [Región de Tarapacá] 12 [Actividades inmobiliarias]                       1
##  9 1 [Región de Tarapacá] 13 [Actividades profesionales, científicas y té~     6
## 10 1 [Región de Tarapacá] 14 [Actividades de servicios administrativos y ~    42
## # ... with 234 more rows
```
…
